{
  "StartAt": "Init",
  "Comment": "",
  "States": {
    "Init": {
      "Type": "Task",
      "Resource": "HandleInit",
      "TransitionEvent": ":initialized",
      "Catch": [],
      "Next": "Quorum",
      "End": false
    },
    "Ready": {
      "Type": "Choice",
      "Resource": "HandleReady",
      "Choices": [
        {
          "StringEquals": ":node_up",
          "Next": "ReadyNodeUp"
        },
        {
          "StringEquals": ":node_down",
          "Next": "ReadyNodeDown"
        },
        {
          "StringEquals": ":anti_entropy",
          "Next": "AntiEntropy"
        }
      ]
    },
    "QuorumNodeUp": {
      "Type": "Task",
      "Resource": "HandleNodeUp",
      "TransitionEvent": ":node_added",
      "Catch": [],
      "Next": "Quorum",
      "End": false
    },
    "ReadyNodeUp": {
      "Type": "Task",
      "Resource": "HandleNodeUp",
      "TransitionEvent": ":node_added",
      "Catch": [],
      "Next": "Ready",
      "End": false
    },
    "Quorum": {
      "Type": "Choice",
      "Resource": "AwaitQuorum",
      "Choices": [
        {
          "StringEquals": ":quorum",
          "Next": "Ready"
        },
        {
          "StringEquals": ":node_up",
          "Next": "QuorumNodeUp"
        },
        {
          "StringEquals": ":node_down",
          "Next": "QuorumNodeDown"
        }
      ]
    },
    "ReadyNodeDown": {
      "Type": "Task",
      "Resource": "HandleNodeDown",
      "TransitionEvent": ":node_removed",
      "Catch": [],
      "Next": "Quorum",
      "End": false
    },
    "QuorumNodeDown": {
      "Type": "Task",
      "Resource": "HandleNodeDown",
      "TransitionEvent": ":node_removed",
      "Catch": [],
      "Next": "Quorum",
      "End": false
    },
    "AntiEntropy": {
      "Type": "Task",
      "Resource": "HandleAntiEntropy",
      "TransitionEvent": ":done",
      "Catch": [],
      "Next": "Ready",
      "End": false
    }
  }
}
